---
version: 2
interactions:
    - id: 0
      request:
        proto: HTTP/1.1
        proto_major: 1
        proto_minor: 1
        content_length: 0
        host: dcp-testing-oig-2025-06-26.oktapreview.com
        form:
            filter:
                - parent.externalId eq "0oankw1sc6z965dIC1d7" AND parent.type eq "APPLICATION"
            limit:
                - "1"
        headers:
            Accept:
                - application/json
            User-Agent:
                - okta-governance-sdk-golang/1.0.1 golang/go1.26.0 darwin/arm64
        url: https://dcp-testing-oig-2025-06-26.oktapreview.com/governance/api/v1/entitlements?filter=parent.externalId+eq+%220oankw1sc6z965dIC1d7%22+AND+parent.type+eq+%22APPLICATION%22&limit=1
        method: GET
      response:
        proto: HTTP/2.0
        proto_major: 2
        proto_minor: 0
        content_length: -1
        uncompressed: true
        body: '{"data":[{"parentResourceOrn":"orn:oktapreview:idp:00onkw1sbuAh3Q06I1d7:apps:saasure:0oankw1sc6z965dIC1d7","parent":{"externalId":"0oankw1sc6z965dIC1d7","type":"APPLICATION"},"_links":{"self":{"href":"https://dcp-testing-oig-2025-06-26-admin.oktapreview.com/governance/api/v1/entitlements/espyyxsx6rrrjGiIx1d6","hints":{}},"values":{"href":"https://dcp-testing-oig-2025-06-26-admin.oktapreview.com/governance/api/v1/entitlements/espyyxsx6rrrjGiIx1d6/values?limit=1","hints":{}}},"id":"espyyxsx6rrrjGiIx1d6","name":"ACCESS_REQUESTS_ADMIN","externalValue":"ACCESS_REQUESTS_ADMIN","description":"An IGA admin role for managing access requests","multiValue":true,"required":false,"dataType":"array","createdBy":"pcankwjew5WvKbIc81d7","created":"2025-06-27T12:18:37Z","lastUpdated":"2025-06-27T12:18:37Z","lastUpdatedBy":"pcankwjew5WvKbIc81d7"}],"_links":{"self":{"href":"https://dcp-testing-oig-2025-06-26-admin.oktapreview.com/governance/api/v1/entitlements?filter=parent.externalId%20eq%20%220oankw1sc6z965dIC1d7%22%20AND%20parent.type%20eq%20%22APPLICATION%22&limit=1&orderBy=name%20asc","hints":{}},"next":{"href":"https://dcp-testing-oig-2025-06-26-admin.oktapreview.com/governance/api/v1/entitlements?filter=parent.externalId%20eq%20%220oankw1sc6z965dIC1d7%22%20AND%20parent.type%20eq%20%22APPLICATION%22&after=espyyxsx6rrrjGiIx1d6&limit=1&orderBy=name%20asc","hints":{}}},"metadata":{"total":16}}'
        headers:
            Accept-Ch:
                - Sec-CH-UA-Platform-Version
            Cache-Control:
                - no-cache, no-store
            Content-Security-Policy:
                - 'default-src ''self'' dcp-testing-oig-2025-06-26.oktapreview.com *.oktacdn.com; connect-src ''self'' dcp-testing-oig-2025-06-26.oktapreview.com dcp-testing-oig-2025-06-26-admin.oktapreview.com *.oktacdn.com *.mixpanel.com *.mapbox.com dcp-testing-oig-2025-06-26.kerberos.oktapreview.com dcp-testing-oig-2025-06-26.mtls.oktapreview.com *.authenticatorlocalprod.com:8769 http://localhost:8769 http://127.0.0.1:8769 *.authenticatorlocalprod.com:65111 http://localhost:65111 http://127.0.0.1:65111 *.authenticatorlocalprod.com:65121 http://localhost:65121 http://127.0.0.1:65121 *.authenticatorlocalprod.com:65131 http://localhost:65131 http://127.0.0.1:65131 *.authenticatorlocalprod.com:65141 http://localhost:65141 http://127.0.0.1:65141 *.authenticatorlocalprod.com:65151 http://localhost:65151 http://127.0.0.1:65151 https://oinmanager.okta.com data: *.ingest.sentry.io; script-src ''unsafe-inline'' ''self'' ''report-sample'' dcp-testing-oig-2025-06-26.oktapreview.com *.oktacdn.com; style-src ''unsafe-inline'' ''self'' ''report-sample'' dcp-testing-oig-2025-06-26.oktapreview.com *.oktacdn.com; frame-src ''self'' dcp-testing-oig-2025-06-26.oktapreview.com dcp-testing-oig-2025-06-26-admin.oktapreview.com login.okta.com *.vidyard.com com-okta-authenticator:; img-src ''self'' dcp-testing-oig-2025-06-26.oktapreview.com *.oktacdn.com *.tiles.mapbox.com *.mapbox.com *.vidyard.com data: blob:; font-src ''self'' dcp-testing-oig-2025-06-26.oktapreview.com data: *.oktacdn.com fonts.gstatic.com; frame-ancestors ''self'''
            Content-Type:
                - application/json
            Date:
                - Wed, 11 Mar 2026 04:01:43 GMT
            Expires:
                - "0"
            Link:
                - <https://dcp-testing-oig-2025-06-26-admin.oktapreview.com/governance/api/v1/entitlements?filter=parent.externalId%20eq%20%220oankw1sc6z965dIC1d7%22%20AND%20parent.type%20eq%20%22APPLICATION%22&limit=1&orderBy=name%20asc>; rel="self"
                - <https://dcp-testing-oig-2025-06-26-admin.oktapreview.com/governance/api/v1/entitlements?filter=parent.externalId%20eq%20%220oankw1sc6z965dIC1d7%22%20AND%20parent.type%20eq%20%22APPLICATION%22&after=espyyxsx6rrrjGiIx1d6&limit=1&orderBy=name%20asc>; rel="next"
            P3p:
                - CP="HONK"
            Pragma:
                - no-cache
            Referrer-Policy:
                - strict-origin-when-cross-origin
            Server:
                - nginx
            Strict-Transport-Security:
                - max-age=315360000; includeSubDomains
            Vary:
                - Accept-Encoding
            X-Content-Type-Options:
                - nosniff
            X-Rate-Limit-Limit:
                - "50"
            X-Rate-Limit-Remaining:
                - "45"
            X-Rate-Limit-Reset:
                - "1773201740"
            X-Xss-Protection:
                - "0"
        status: 200 OK
        code: 200
        duration: 361.271333ms
    - id: 1
      request:
        proto: HTTP/1.1
        proto_major: 1
        proto_minor: 1
        content_length: 0
        host: dcp-testing-oig-2025-06-26.oktapreview.com
        headers:
            Accept:
                - application/json
            User-Agent:
                - okta-governance-sdk-golang/1.0.1 golang/go1.26.0 darwin/arm64
        url: https://dcp-testing-oig-2025-06-26.oktapreview.com/governance/api/v1/entitlements/espyyxsx6rrrjGiIx1d6
        method: GET
      response:
        proto: HTTP/2.0
        proto_major: 2
        proto_minor: 0
        content_length: -1
        uncompressed: true
        body: '{"parentResourceOrn":"orn:oktapreview:idp:00onkw1sbuAh3Q06I1d7:apps:saasure:0oankw1sc6z965dIC1d7","parent":{"externalId":"0oankw1sc6z965dIC1d7","type":"APPLICATION"},"values":[{"id":"entyyxsx7c5hbXwOn1d6","name":"ACCESS_REQUESTS_IAM_POLICY","externalValue":"orn:oktapreview:iam:00onkw1sbuAh3Q06I1d7:resource-sets:ACCESS_REQUESTS_IAM_POLICY","description":"A resource set managed by Access Requests Admin","orn":"orn:okta:governance:00onkw1sbuAh3Q06I1d7:entitlement-values:entyyxsx7c5hbXwOn1d6","createdBy":"pcankwjew5WvKbIc81d7","created":"2025-06-27T12:18:37Z","lastUpdated":"2025-06-27T12:18:37Z","lastUpdatedBy":"pcankwjew5WvKbIc81d7"}],"_links":{"self":{"href":"https://dcp-testing-oig-2025-06-26-admin.oktapreview.com/governance/api/v1/entitlements/espyyxsx6rrrjGiIx1d6","hints":{}}},"metadata":{"total":1},"id":"espyyxsx6rrrjGiIx1d6","name":"ACCESS_REQUESTS_ADMIN","externalValue":"ACCESS_REQUESTS_ADMIN","description":"An IGA admin role for managing access requests","multiValue":true,"required":false,"dataType":"array","createdBy":"pcankwjew5WvKbIc81d7","created":"2025-06-27T12:18:37Z","lastUpdated":"2025-06-27T12:18:37Z","lastUpdatedBy":"pcankwjew5WvKbIc81d7"}'
        headers:
            Accept-Ch:
                - Sec-CH-UA-Platform-Version
            Cache-Control:
                - no-cache, no-store
            Content-Security-Policy:
                - 'default-src ''self'' dcp-testing-oig-2025-06-26.oktapreview.com *.oktacdn.com; connect-src ''self'' dcp-testing-oig-2025-06-26.oktapreview.com dcp-testing-oig-2025-06-26-admin.oktapreview.com *.oktacdn.com *.mixpanel.com *.mapbox.com dcp-testing-oig-2025-06-26.kerberos.oktapreview.com dcp-testing-oig-2025-06-26.mtls.oktapreview.com *.authenticatorlocalprod.com:8769 http://localhost:8769 http://127.0.0.1:8769 *.authenticatorlocalprod.com:65111 http://localhost:65111 http://127.0.0.1:65111 *.authenticatorlocalprod.com:65121 http://localhost:65121 http://127.0.0.1:65121 *.authenticatorlocalprod.com:65131 http://localhost:65131 http://127.0.0.1:65131 *.authenticatorlocalprod.com:65141 http://localhost:65141 http://127.0.0.1:65141 *.authenticatorlocalprod.com:65151 http://localhost:65151 http://127.0.0.1:65151 https://oinmanager.okta.com data: *.ingest.sentry.io; script-src ''unsafe-inline'' ''self'' ''report-sample'' dcp-testing-oig-2025-06-26.oktapreview.com *.oktacdn.com; style-src ''unsafe-inline'' ''self'' ''report-sample'' dcp-testing-oig-2025-06-26.oktapreview.com *.oktacdn.com; frame-src ''self'' dcp-testing-oig-2025-06-26.oktapreview.com dcp-testing-oig-2025-06-26-admin.oktapreview.com login.okta.com *.vidyard.com com-okta-authenticator:; img-src ''self'' dcp-testing-oig-2025-06-26.oktapreview.com *.oktacdn.com *.tiles.mapbox.com *.mapbox.com *.vidyard.com data: blob:; font-src ''self'' dcp-testing-oig-2025-06-26.oktapreview.com data: *.oktacdn.com fonts.gstatic.com; frame-ancestors ''self'''
            Content-Type:
                - application/json
            Date:
                - Wed, 11 Mar 2026 04:01:44 GMT
            Expires:
                - "0"
            Link:
                - <https://dcp-testing-oig-2025-06-26-admin.oktapreview.com/governance/api/v1/entitlements/espyyxsx6rrrjGiIx1d6>; rel="self"
            P3p:
                - CP="HONK"
            Pragma:
                - no-cache
            Referrer-Policy:
                - strict-origin-when-cross-origin
            Server:
                - nginx
            Strict-Transport-Security:
                - max-age=315360000; includeSubDomains
            Vary:
                - Accept-Encoding
            X-Content-Type-Options:
                - nosniff
            X-Rate-Limit-Limit:
                - "50"
            X-Rate-Limit-Remaining:
                - "49"
            X-Rate-Limit-Reset:
                - "1773201764"
            X-Xss-Protection:
                - "0"
        status: 200 OK
        code: 200
        duration: 370.603375ms
