---
version: 2
interactions:
    - id: 0
      request:
        proto: HTTP/1.1
        proto_major: 1
        proto_minor: 1
        content_length: 0
        host: dcp-sep25.oktapreview.com
        form:
            limit:
                - "1"
        headers:
            Accept:
                - application/json
            User-Agent:
                - okta-governance-sdk-golang/1.0.1 golang/go1.26.0 darwin/arm64
        url: https://dcp-sep25.oktapreview.com/governance/api/v1/entitlement-bundles?limit=1
        method: GET
      response:
        proto: HTTP/2.0
        proto_major: 2
        proto_minor: 0
        content_length: -1
        uncompressed: true
        body: '{"data":[{"orn":"orn:okta:governance:00oqd1g3fdTDtBPM01d7:entitlement-bundles:enb18v0ta5boKOyxA1d7","targetResourceOrn":"orn:oktapreview:idp:00oqd1g3fdTDtBPM01d7:apps:saasure:0oaqd1g3fn0YwD9sU1d7","target":{"externalId":"0oaqd1g3fn0YwD9sU1d7","type":"APPLICATION"},"status":"ACTIVE","entitlements":[],"_links":{"self":{"href":"https://dcp-sep25-admin.oktapreview.com/governance/api/v1/entitlement-bundles/enb18v0ta5boKOyxA1d7","hints":{}}},"name":"Group Administrator","description":"Group Administrator","id":"enb18v0ta5boKOyxA1d7","createdBy":"pcaqd21mhdUUbRwMT1d7","created":"2026-03-11T07:59:42Z","lastUpdated":"2026-03-11T07:59:42Z","lastUpdatedBy":"pcaqd21mhdUUbRwMT1d7"}],"_links":{"self":{"href":"https://dcp-sep25-admin.oktapreview.com/governance/api/v1/entitlement-bundles?limit=1","hints":{}},"next":{"href":"https://dcp-sep25-admin.oktapreview.com/governance/api/v1/entitlement-bundles?after=enb18v0ta5boKOyxA1d7&limit=1","hints":{}}},"metadata":{"total":12}}'
        headers:
            Accept-Ch:
                - Sec-CH-UA-Platform-Version
            Cache-Control:
                - no-cache, no-store
            Content-Security-Policy:
                - 'default-src ''self'' dcp-sep25.oktapreview.com *.oktacdn.com; connect-src ''self'' dcp-sep25.oktapreview.com dcp-sep25-admin.oktapreview.com *.oktacdn.com *.mixpanel.com *.mapbox.com dcp-sep25.kerberos.oktapreview.com dcp-sep25.mtls.oktapreview.com *.authenticatorlocalprod.com:8769 http://localhost:8769 http://127.0.0.1:8769 *.authenticatorlocalprod.com:65111 http://localhost:65111 http://127.0.0.1:65111 *.authenticatorlocalprod.com:65121 http://localhost:65121 http://127.0.0.1:65121 *.authenticatorlocalprod.com:65131 http://localhost:65131 http://127.0.0.1:65131 *.authenticatorlocalprod.com:65141 http://localhost:65141 http://127.0.0.1:65141 *.authenticatorlocalprod.com:65151 http://localhost:65151 http://127.0.0.1:65151 https://oinmanager.okta.com data: *.ingest.sentry.io; script-src ''unsafe-inline'' ''self'' ''report-sample'' dcp-sep25.oktapreview.com *.oktacdn.com; style-src ''unsafe-inline'' ''self'' ''report-sample'' dcp-sep25.oktapreview.com *.oktacdn.com; frame-src ''self'' dcp-sep25.oktapreview.com dcp-sep25-admin.oktapreview.com login.okta.com *.vidyard.com com-okta-authenticator:; img-src ''self'' dcp-sep25.oktapreview.com *.oktacdn.com *.tiles.mapbox.com *.mapbox.com *.vidyard.com data: blob:; font-src ''self'' dcp-sep25.oktapreview.com data: *.oktacdn.com fonts.gstatic.com; frame-ancestors ''self'''
            Content-Type:
                - application/json
            Date:
                - Wed, 11 Mar 2026 09:25:47 GMT
            Expires:
                - "0"
            Link:
                - <https://dcp-sep25-admin.oktapreview.com/governance/api/v1/entitlement-bundles?limit=1>; rel="self"
                - <https://dcp-sep25-admin.oktapreview.com/governance/api/v1/entitlement-bundles?after=enb18v0ta5boKOyxA1d7&limit=1>; rel="next"
            P3p:
                - CP="HONK"
            Pragma:
                - no-cache
            Referrer-Policy:
                - strict-origin-when-cross-origin
            Server:
                - nginx
            Strict-Transport-Security:
                - max-age=315360000; includeSubDomains
            Vary:
                - Accept-Encoding
            X-Content-Type-Options:
                - nosniff
            X-Rate-Limit-Limit:
                - "50"
            X-Rate-Limit-Remaining:
                - "48"
            X-Rate-Limit-Reset:
                - "1773221206"
            X-Xss-Protection:
                - "0"
        status: 200 OK
        code: 200
        duration: 379.805167ms
    - id: 1
      request:
        proto: HTTP/1.1
        proto_major: 1
        proto_minor: 1
        content_length: 0
        host: dcp-sep25.oktapreview.com
        headers:
            Accept:
                - application/json
            User-Agent:
                - okta-governance-sdk-golang/1.0.1 golang/go1.26.0 darwin/arm64
        url: https://dcp-sep25.oktapreview.com/governance/api/v1/entitlement-bundles/enb18v0ta5boKOyxA1d7
        method: GET
      response:
        proto: HTTP/2.0
        proto_major: 2
        proto_minor: 0
        content_length: -1
        uncompressed: true
        body: '{"orn":"orn:okta:governance:00oqd1g3fdTDtBPM01d7:entitlement-bundles:enb18v0ta5boKOyxA1d7","targetResourceOrn":"orn:oktapreview:idp:00oqd1g3fdTDtBPM01d7:apps:saasure:0oaqd1g3fn0YwD9sU1d7","target":{"externalId":"0oaqd1g3fn0YwD9sU1d7","type":"APPLICATION"},"status":"ACTIVE","entitlements":[{"values":[{"id":"ent18v0zy6oGI3Cpk1d7","name":"All groups","externalValue":"orn:oktapreview:directory:00oqd1g3fdTDtBPM01d7:groups","description":"All groups","orn":"orn:okta:governance:00oqd1g3fdTDtBPM01d7:entitlement-values:ent18v0zy6oGI3Cpk1d7","createdBy":"pcaqd21mhdUUbRwMT1d7","created":"2026-03-11T07:59:42Z","lastUpdated":"2026-03-11T07:59:42Z","lastUpdatedBy":"pcaqd21mhdUUbRwMT1d7"}],"id":"esp18v0zy52JLdp9v1d7","name":"GroupAdmin","externalValue":"ro1ffiDIAATQIYBVTZNH","description":"Group Administrator","multiValue":true,"required":false,"dataType":"array"}],"_links":{"self":{"href":"https://dcp-sep25-admin.oktapreview.com/governance/api/v1/entitlement-bundles/enb18v0ta5boKOyxA1d7","hints":{}}},"name":"Group Administrator","description":"Group Administrator","id":"enb18v0ta5boKOyxA1d7","createdBy":"pcaqd21mhdUUbRwMT1d7","created":"2026-03-11T07:59:42Z","lastUpdated":"2026-03-11T07:59:42Z","lastUpdatedBy":"pcaqd21mhdUUbRwMT1d7"}'
        headers:
            Accept-Ch:
                - Sec-CH-UA-Platform-Version
            Cache-Control:
                - no-cache, no-store
            Content-Security-Policy:
                - 'default-src ''self'' dcp-sep25.oktapreview.com *.oktacdn.com; connect-src ''self'' dcp-sep25.oktapreview.com dcp-sep25-admin.oktapreview.com *.oktacdn.com *.mixpanel.com *.mapbox.com dcp-sep25.kerberos.oktapreview.com dcp-sep25.mtls.oktapreview.com *.authenticatorlocalprod.com:8769 http://localhost:8769 http://127.0.0.1:8769 *.authenticatorlocalprod.com:65111 http://localhost:65111 http://127.0.0.1:65111 *.authenticatorlocalprod.com:65121 http://localhost:65121 http://127.0.0.1:65121 *.authenticatorlocalprod.com:65131 http://localhost:65131 http://127.0.0.1:65131 *.authenticatorlocalprod.com:65141 http://localhost:65141 http://127.0.0.1:65141 *.authenticatorlocalprod.com:65151 http://localhost:65151 http://127.0.0.1:65151 https://oinmanager.okta.com data: *.ingest.sentry.io; script-src ''unsafe-inline'' ''self'' ''report-sample'' dcp-sep25.oktapreview.com *.oktacdn.com; style-src ''unsafe-inline'' ''self'' ''report-sample'' dcp-sep25.oktapreview.com *.oktacdn.com; frame-src ''self'' dcp-sep25.oktapreview.com dcp-sep25-admin.oktapreview.com login.okta.com *.vidyard.com com-okta-authenticator:; img-src ''self'' dcp-sep25.oktapreview.com *.oktacdn.com *.tiles.mapbox.com *.mapbox.com *.vidyard.com data: blob:; font-src ''self'' dcp-sep25.oktapreview.com data: *.oktacdn.com fonts.gstatic.com; frame-ancestors ''self'''
            Content-Type:
                - application/json
            Date:
                - Wed, 11 Mar 2026 09:25:48 GMT
            Expires:
                - "0"
            Link:
                - <https://dcp-sep25-admin.oktapreview.com/governance/api/v1/entitlement-bundles/enb18v0ta5boKOyxA1d7>; rel="self"
            P3p:
                - CP="HONK"
            Pragma:
                - no-cache
            Referrer-Policy:
                - strict-origin-when-cross-origin
            Server:
                - nginx
            Strict-Transport-Security:
                - max-age=315360000; includeSubDomains
            Vary:
                - Accept-Encoding
            X-Content-Type-Options:
                - nosniff
            X-Rate-Limit-Limit:
                - "50"
            X-Rate-Limit-Remaining:
                - "47"
            X-Rate-Limit-Reset:
                - "1773221206"
            X-Xss-Protection:
                - "0"
        status: 200 OK
        code: 200
        duration: 383.484667ms
