---
version: 2
interactions:
    - id: 0
      request:
        proto: HTTP/1.1
        proto_major: 1
        proto_minor: 1
        content_length: 0
        host: dcp-sep25.oktapreview.com
        form:
            limit:
                - "10"
        headers:
            Accept:
                - application/json
            User-Agent:
                - okta-governance-sdk-golang/1.0.1 golang/go1.26.0 darwin/arm64
        url: https://dcp-sep25.oktapreview.com/governance/api/v1/entitlement-bundles?limit=10
        method: GET
      response:
        proto: HTTP/2.0
        proto_major: 2
        proto_minor: 0
        content_length: -1
        uncompressed: true
        body: '{"data":[{"orn":"orn:okta:governance:00oqd1g3fdTDtBPM01d7:entitlement-bundles:enb18v0ta5boKOyxA1d7","targetResourceOrn":"orn:oktapreview:idp:00oqd1g3fdTDtBPM01d7:apps:saasure:0oaqd1g3fn0YwD9sU1d7","target":{"externalId":"0oaqd1g3fn0YwD9sU1d7","type":"APPLICATION"},"status":"ACTIVE","entitlements":[],"_links":{"self":{"href":"https://dcp-sep25-admin.oktapreview.com/governance/api/v1/entitlement-bundles/enb18v0ta5boKOyxA1d7","hints":{}}},"name":"Group Administrator","description":"Group Administrator","id":"enb18v0ta5boKOyxA1d7","createdBy":"pcaqd21mhdUUbRwMT1d7","created":"2026-03-11T07:59:42Z","lastUpdated":"2026-03-11T07:59:42Z","lastUpdatedBy":"pcaqd21mhdUUbRwMT1d7"},{"orn":"orn:okta:governance:00oqd1g3fdTDtBPM01d7:entitlement-bundles:enb18v0xqkrZKoXkX1d7","targetResourceOrn":"orn:oktapreview:idp:00oqd1g3fdTDtBPM01d7:apps:saasure:0oaqd1g3fn0YwD9sU1d7","target":{"externalId":"0oaqd1g3fn0YwD9sU1d7","type":"APPLICATION"},"status":"ACTIVE","entitlements":[],"_links":{"self":{"href":"https://dcp-sep25-admin.oktapreview.com/governance/api/v1/entitlement-bundles/enb18v0xqkrZKoXkX1d7","hints":{}}},"name":"Super Organization Administrator","description":"Super Organization Administrator","id":"enb18v0xqkrZKoXkX1d7","createdBy":"pcaqd21mhdUUbRwMT1d7","created":"2026-03-11T07:59:41Z","lastUpdated":"2026-03-11T07:59:41Z","lastUpdatedBy":"pcaqd21mhdUUbRwMT1d7"},{"orn":"orn:okta:governance:00oqd1g3fdTDtBPM01d7:entitlement-bundles:enb18v0ta1FV8Ka8w1d7","targetResourceOrn":"orn:oktapreview:idp:00oqd1g3fdTDtBPM01d7:apps:saasure:0oaqd1g3fn0YwD9sU1d7","target":{"externalId":"0oaqd1g3fn0YwD9sU1d7","type":"APPLICATION"},"status":"ACTIVE","entitlements":[],"_links":{"self":{"href":"https://dcp-sep25-admin.oktapreview.com/governance/api/v1/entitlement-bundles/enb18v0ta1FV8Ka8w1d7","hints":{}}},"name":"Report Administrator","description":"Report Administrator","id":"enb18v0ta1FV8Ka8w1d7","createdBy":"pcaqd21mhdUUbRwMT1d7","created":"2026-03-11T07:59:41Z","lastUpdated":"2026-03-11T07:59:41Z","lastUpdatedBy":"pcaqd21mhdUUbRwMT1d7"},{"orn":"orn:okta:governance:00oqd1g3fdTDtBPM01d7:entitlement-bundles:enb18v0xqeKdHDxdH1d7","targetResourceOrn":"orn:oktapreview:idp:00oqd1g3fdTDtBPM01d7:apps:saasure:0oaqd1g3fn0YwD9sU1d7","target":{"externalId":"0oaqd1g3fn0YwD9sU1d7","type":"APPLICATION"},"status":"ACTIVE","entitlements":[],"_links":{"self":{"href":"https://dcp-sep25-admin.oktapreview.com/governance/api/v1/entitlement-bundles/enb18v0xqeKdHDxdH1d7","hints":{}}},"name":"Read-only Administrator","description":"Read-only Administrator","id":"enb18v0xqeKdHDxdH1d7","createdBy":"pcaqd21mhdUUbRwMT1d7","created":"2026-03-11T07:59:40Z","lastUpdated":"2026-03-11T07:59:40Z","lastUpdatedBy":"pcaqd21mhdUUbRwMT1d7"},{"orn":"orn:okta:governance:00oqd1g3fdTDtBPM01d7:entitlement-bundles:enb18v0xq8TTv64TA1d7","targetResourceOrn":"orn:oktapreview:idp:00oqd1g3fdTDtBPM01d7:apps:saasure:0oaqd1g3fn0YwD9sU1d7","target":{"externalId":"0oaqd1g3fn0YwD9sU1d7","type":"APPLICATION"},"status":"ACTIVE","entitlements":[],"_links":{"self":{"href":"https://dcp-sep25-admin.oktapreview.com/governance/api/v1/entitlement-bundles/enb18v0xq8TTv64TA1d7","hints":{}}},"name":"Organization Administrator","description":"Organization Administrator","id":"enb18v0xq8TTv64TA1d7","createdBy":"pcaqd21mhdUUbRwMT1d7","created":"2026-03-11T07:59:39Z","lastUpdated":"2026-03-11T07:59:39Z","lastUpdatedBy":"pcaqd21mhdUUbRwMT1d7"},{"orn":"orn:okta:governance:00oqd1g3fdTDtBPM01d7:entitlement-bundles:enb18v0zy1M3SbZDc1d7","targetResourceOrn":"orn:oktapreview:idp:00oqd1g3fdTDtBPM01d7:apps:saasure:0oaqd1g3fn0YwD9sU1d7","target":{"externalId":"0oaqd1g3fn0YwD9sU1d7","type":"APPLICATION"},"status":"ACTIVE","entitlements":[],"_links":{"self":{"href":"https://dcp-sep25-admin.oktapreview.com/governance/api/v1/entitlement-bundles/enb18v0zy1M3SbZDc1d7","hints":{}}},"name":"Mobile Administrator","description":"Mobile Administrator","id":"enb18v0zy1M3SbZDc1d7","createdBy":"pcaqd21mhdUUbRwMT1d7","created":"2026-03-11T07:59:38Z","lastUpdated":"2026-03-11T07:59:38Z","lastUpdatedBy":"pcaqd21mhdUUbRwMT1d7"},{"orn":"orn:okta:governance:00oqd1g3fdTDtBPM01d7:entitlement-bundles:enb18v0xq2t8PhEt91d7","targetResourceOrn":"orn:oktapreview:idp:00oqd1g3fdTDtBPM01d7:apps:saasure:0oaqd1g3fn0YwD9sU1d7","target":{"externalId":"0oaqd1g3fn0YwD9sU1d7","type":"APPLICATION"},"status":"ACTIVE","entitlements":[],"_links":{"self":{"href":"https://dcp-sep25-admin.oktapreview.com/governance/api/v1/entitlement-bundles/enb18v0xq2t8PhEt91d7","hints":{}}},"name":"Help Desk Administrator","description":"Help Desk Administrator","id":"enb18v0xq2t8PhEt91d7","createdBy":"pcaqd21mhdUUbRwMT1d7","created":"2026-03-11T07:59:38Z","lastUpdated":"2026-03-11T07:59:38Z","lastUpdatedBy":"pcaqd21mhdUUbRwMT1d7"},{"orn":"orn:okta:governance:00oqd1g3fdTDtBPM01d7:entitlement-bundles:enb18v0xpy8fUEClF1d7","targetResourceOrn":"orn:oktapreview:idp:00oqd1g3fdTDtBPM01d7:apps:saasure:0oaqd1g3fn0YwD9sU1d7","target":{"externalId":"0oaqd1g3fn0YwD9sU1d7","type":"APPLICATION"},"status":"ACTIVE","entitlements":[],"_links":{"self":{"href":"https://dcp-sep25-admin.oktapreview.com/governance/api/v1/entitlement-bundles/enb18v0xpy8fUEClF1d7","hints":{}}},"name":"Group Membership Administrator","description":"Group Membership Administrator","id":"enb18v0xpy8fUEClF1d7","createdBy":"pcaqd21mhdUUbRwMT1d7","created":"2026-03-11T07:59:37Z","lastUpdated":"2026-03-11T07:59:37Z","lastUpdatedBy":"pcaqd21mhdUUbRwMT1d7"},{"orn":"orn:okta:governance:00oqd1g3fdTDtBPM01d7:entitlement-bundles:enb18v0t9tqw0m0mA1d7","targetResourceOrn":"orn:oktapreview:idp:00oqd1g3fdTDtBPM01d7:apps:saasure:0oaqd1g3fn0YwD9sU1d7","target":{"externalId":"0oaqd1g3fn0YwD9sU1d7","type":"APPLICATION"},"status":"ACTIVE","entitlements":[],"_links":{"self":{"href":"https://dcp-sep25-admin.oktapreview.com/governance/api/v1/entitlement-bundles/enb18v0t9tqw0m0mA1d7","hints":{}}},"name":"Application Administrator","description":"Application Administrator","id":"enb18v0t9tqw0m0mA1d7","createdBy":"pcaqd21mhdUUbRwMT1d7","created":"2026-03-11T07:59:36Z","lastUpdated":"2026-03-11T07:59:36Z","lastUpdatedBy":"pcaqd21mhdUUbRwMT1d7"},{"orn":"orn:okta:governance:00oqd1g3fdTDtBPM01d7:entitlement-bundles:enb18v0t9pwlTuI4B1d7","targetResourceOrn":"orn:oktapreview:idp:00oqd1g3fdTDtBPM01d7:apps:saasure:0oaqd1g3fn0YwD9sU1d7","target":{"externalId":"0oaqd1g3fn0YwD9sU1d7","type":"APPLICATION"},"status":"ACTIVE","entitlements":[],"_links":{"self":{"href":"https://dcp-sep25-admin.oktapreview.com/governance/api/v1/entitlement-bundles/enb18v0t9pwlTuI4B1d7","hints":{}}},"name":"API Access Management Administrator","description":"API Access Management Administrator","id":"enb18v0t9pwlTuI4B1d7","createdBy":"pcaqd21mhdUUbRwMT1d7","created":"2026-03-11T07:59:36Z","lastUpdated":"2026-03-11T07:59:36Z","lastUpdatedBy":"pcaqd21mhdUUbRwMT1d7"}],"_links":{"self":{"href":"https://dcp-sep25-admin.oktapreview.com/governance/api/v1/entitlement-bundles?limit=10","hints":{}},"next":{"href":"https://dcp-sep25-admin.oktapreview.com/governance/api/v1/entitlement-bundles?after=enb18v0t9pwlTuI4B1d7&limit=10","hints":{}}},"metadata":{"total":12}}'
        headers:
            Accept-Ch:
                - Sec-CH-UA-Platform-Version
            Cache-Control:
                - no-cache, no-store
            Content-Security-Policy:
                - 'default-src ''self'' dcp-sep25.oktapreview.com *.oktacdn.com; connect-src ''self'' dcp-sep25.oktapreview.com dcp-sep25-admin.oktapreview.com *.oktacdn.com *.mixpanel.com *.mapbox.com dcp-sep25.kerberos.oktapreview.com dcp-sep25.mtls.oktapreview.com *.authenticatorlocalprod.com:8769 http://localhost:8769 http://127.0.0.1:8769 *.authenticatorlocalprod.com:65111 http://localhost:65111 http://127.0.0.1:65111 *.authenticatorlocalprod.com:65121 http://localhost:65121 http://127.0.0.1:65121 *.authenticatorlocalprod.com:65131 http://localhost:65131 http://127.0.0.1:65131 *.authenticatorlocalprod.com:65141 http://localhost:65141 http://127.0.0.1:65141 *.authenticatorlocalprod.com:65151 http://localhost:65151 http://127.0.0.1:65151 https://oinmanager.okta.com data: *.ingest.sentry.io; script-src ''unsafe-inline'' ''self'' ''report-sample'' dcp-sep25.oktapreview.com *.oktacdn.com; style-src ''unsafe-inline'' ''self'' ''report-sample'' dcp-sep25.oktapreview.com *.oktacdn.com; frame-src ''self'' dcp-sep25.oktapreview.com dcp-sep25-admin.oktapreview.com login.okta.com *.vidyard.com com-okta-authenticator:; img-src ''self'' dcp-sep25.oktapreview.com *.oktacdn.com *.tiles.mapbox.com *.mapbox.com *.vidyard.com data: blob:; font-src ''self'' dcp-sep25.oktapreview.com data: *.oktacdn.com fonts.gstatic.com; frame-ancestors ''self'''
            Content-Type:
                - application/json
            Date:
                - Wed, 11 Mar 2026 09:25:46 GMT
            Expires:
                - "0"
            Link:
                - <https://dcp-sep25-admin.oktapreview.com/governance/api/v1/entitlement-bundles?limit=10>; rel="self"
                - <https://dcp-sep25-admin.oktapreview.com/governance/api/v1/entitlement-bundles?after=enb18v0t9pwlTuI4B1d7&limit=10>; rel="next"
            P3p:
                - CP="HONK"
            Pragma:
                - no-cache
            Referrer-Policy:
                - strict-origin-when-cross-origin
            Server:
                - nginx
            Strict-Transport-Security:
                - max-age=315360000; includeSubDomains
            Vary:
                - Accept-Encoding
            X-Content-Type-Options:
                - nosniff
            X-Rate-Limit-Limit:
                - "50"
            X-Rate-Limit-Remaining:
                - "49"
            X-Rate-Limit-Reset:
                - "1773221206"
            X-Xss-Protection:
                - "0"
        status: 200 OK
        code: 200
        duration: 380.759917ms
